TRANSCRIPTION: RFI-AFRIQUE_AUDIO/2023-06-05-04H00M.MP3
--------------------------------------------------------------------------------
 La scène du studio de l'Hermitage à Paris, le 9 juin à 21h. Plus d'infos sur
studio-hermitage.com