TRANSCRIPTION: RFI-AFRIQUE_AUDIO/2023-04-06-20H00M.MP3
--------------------------------------------------------------------------------
... En raison d'un mot d'ordre de grève national, RFI n'est pas en mesure
d'assurer son programme habituel. Veuillez nous en excuser......................
................................................................................
................................................................................
................................................................................
................................................................................
................................................................................
................................................................................
..............................................................................
le tarif hors taxe vers toutes nos destinations régionales. Rendez-vous dans les
agences Air Côte d'Ivoire ou chez votre agent de voyage habituel pour réserver
vos billets. Remise appliquée uniquement sur le réseau régional en classe
économique. Air Côte d'Ivoire, notre plus beau voyage, c'est vous. Air Côte
d'Ivoire, notre plus beau voyage, c'est vous. Air Côte d'Ivoire, notre plus beau
voyage, c'est vous.