TRANSCRIPTION: RADIO-FORMULA-91.3_AUDIO/2023-03-19-08H00M.AAC
--------------------------------------------------------------------------------
 mayor mayor impacto permítame decirlo de esta manera me refiero a las cifras de
la violencia lunes a sábado 6 de la tarde hora del centro mataron a tres
policías y a cinco en un lugar y a cinco de una familia en la sierra mixteca
jose cárdenas abriendo la conversación en grupo fórmula dato curioso sabías que
las vacas no tienen dientes frontales superiores tienen una almohadilla dura si
rusia ¡Oh! Y todo lo que pude ver fue el final de la semana Todas las cosas se
fueron y las cosas se fueron Y nos van a mantener juntos Chicas, es solo un
mater de tiempo ¡Tiempo! ¡Oh! ¡Oh! ¡Oh! ¡Oh! ¡Oh! ¡Oh! Voy a estar pensando…ppp
A part time lovers And then a man called R. X. changed But didn't want to leave
his name I guess you can play the game Of part time lovers You and me Part time
lovers But she and he Part time lovers Oh oh oh oh oh oh oh oh Part time lovers
Oh oh oh oh oh oh oh oh Oh oh oh oh oh oh oh ¿Cuántas veces has medido un road
trip en Horas Música? TRIOL Un concepto de Grupo Fórmula TRIOL TRIOL TRIOL TRIOL
TRIOL TRIOL TRIOL TRIOL TRIOL TRIOL y y y y y y y y y y y y y y y y y y y y y y
y y y y y y y y y y y y y y y y y y y y y y y y y y y y y y y y y y y y y y y y
y y y y y y y y y y y y y y y y y y y y y y y y y y y y y y y y y y y y y y y y
y y y y y y y y y y y y y y y y y y y y y y y y y y y y y y y y y y y y y y y y
y y y y y y y y y y y y y y y y y y y y y y y y y y y y y y y y y y y y y y y y
y y y y y y y y y y y y y y y y y y y y y y y y y y y y y y y y y y y y y y y y
y y y y y y y y y y y y y y y y y y y y y y y y y y y y y y y y y y y y y y y y
y y y y y y y y y y y y y y y y y y y y y y y y y y y y y y y y y y y y y y y y
y y y y y y y y y y y y y y y y y y y y y y y y y y y y y y y y y y y y y y y y
y y y y y y y y y y y y y y y y y y y y y y y y y y y y y y y y y y y y y y y y
y y y y y y y y y y y y y y y y y y y y y y y y y y y y y y y y y y y y y y y y
y y y y y y y y y y y y y y y y y y y y y y y y y y y y y y y y y y y y y y y y
y y y y y y y y y y y y y y y y y y y y y y y y y y y y y y y y y y y y y y y y
y y y y y y y y y y y y y y y y y y y y y y y y y y y y y y y y y y y y y y y y
y y y y y y y y y y y y y y y y y y y y y y y y y y y y y y y y y y y y y y y y
y y y y y y y y y y y y y y y y y y y y y y y y y y y y y y y y y y y y y y y y
y y y y y y y y y y y y y y y y y y y y y y y y y y y y y y y y y y y y y y y y
y y y y y y y y y y y y y y y y y y y y y y y y y y y y y y y y y y y y y y y y
y y y y y y y y y y y y y y y y y y y y y y y y y y y y y y y y y y y y y y y y
y y y y y y y y y y y y y y y y y y y y y y y y y y y y y y y y y y y y y y y y
y y y y y y y y y y y y y y y y y y y y y y y y y y y y y y y y y y y y y y y y
y y y y y y y y y y y y y y y y y y y y y y y y y y y y y y y y y y y y y y y y
y y y y y y y y y y y y y y y y y y y y y y y y y y y y y y y y y y y y y y y y
y y y y y y y y y y y y y y y y y y y y y y y y y y y y y y y y y y y y y y y y
y y y y y y y y y y y y y y y y y y y y y y y y y y y y y y y y y y y y y y y y
y y y y y y y y y y y y y y y y y y y y y y y y y y y y y y y y y y y y y y y y
y y y y y y y y y y y y y y y y y y