TRANSCRIPTION: RADIO-FORMULA-91.3_AUDIO/2023-03-20-11H00M.AAC
--------------------------------------------------------------------------------
 y y y y y y y y y y y y y y y y y y y y y y y y y y y y y y y y y y y y y y y y
y y y y y y y y y y y y y y y y y y y y y y y y y y y y y y y y y y y y y y y y
y y y y y y y y y y y y y y y y y y y y y y y y y y y y y y y y y y y y y y y y
y y y y y y y y y y y y y y y y y y y y y y y y y y y y y y y y y y y y y y y y
y y y y y y y y y y y y y y y y y y y y y y y y y y y y y y y y y y y y y y y y
y y y y y y y y y y y y y y y y y y y y y y y y y y y y y y y y y y y y y y y y
y y y y y y y y y y y y y y y y y y y y y y y y y y y y y y y y y y y y y y y y
y y y y y y y y y y y y y y y y y y y y y y y y y y y y y y y y y y y y y y y y
y y y y y y y y y y y y y y y y y y y y y y y y y y y y y y y y y y y y y y y y
y y y y y y y y y y y y y y y y y y y y y y y y y y y y y y y y y y y y y y y y
y y y y y y y y y y y y y y y y y y y y y y y y y y y y y y y y y y y y y y y y
y y y y y y y y y y y y y y y y y y y y y y y y y y y y y y y y y y y y y y y y
y y y y y y y y y y y y y y y y y y y y y y y y y y y y y y y y y y y y y y y y
y y y y y y y y y y y y y y y y y y y y y y y y y y y y y y y y y y y y y y y y
y y y y y y y y y y y y y y y y y y y y y y y y y y y y y y y y y y y y y y y y
y y y y y y y y y y y y y y y y y y y y y y y y y y y y y y y y y y y y y y y y
y y y y y y y y y y y y y y y y y y y y y y y y y y y y y y y y y y y y y y y y
y y y y y y y y y y y y y y y y y y y y y y y y y y y y y y y y y y y y y y y y
y y y y y y y y y y y y y y y y y y y y y y y y y y y y y y y y y y y y y y y y
y y y y y y y y y y y y y y y y y y y y y y y y y y y y y y y y y y y y y y y y
y y y y y y y y y y y y y y y y y y y y y y y y y y y y y y y y y y y y y y y y
y y y y y y y y y y y y y y y y y y y y y y y y y y y y y y y y y y y y y y y y
y y y y y y y y y y y y y y y y y y y y y y y y y y y y y y y y y y y y y y y y
y y y y y y y y y y y y y y y y y y y y y y y y y y y y y y y y y y y y y y y y
y y y y y y y y y y y y y y y y y y y y y y y y y y y y y y y y y y y y y y y y
y y y y y y y y y y y y y y y y y y y y y y y y y y y y y y y y y y y y y y y y
y y y y y y y y y y y y y y y y y y y y y y y y y y y y y y y y y y y y y y y y
y y y y y y y y y y y y y y y y y y y y y y y y y y y y y y y y y y y y y y y y
y y y y y y y y y y y y y y y y y y y y y y y y y y y y y y y y y y y y y y y y
y y y y y y y y y y y y y y y y y y y y y y y y y y y y y y y y y y y y y