TRANSCRIPTION: RADIO-FORMULA-91.3_AUDIO/2023-03-19-17H00M.AAC
--------------------------------------------------------------------------------
 de los mejores requerimos reconocer que no siempre somos poseedores de la
verdad absoluta. Te envío un abrazo al corazón. Síguela en Twitter, arroba
Adriana Páramo por información, todas las opiniones, entretenimiento para todos.
Todos los deportes, los programas de calidad. Escuchas, Grupo Fórmula. Los
últimos en tener juventud eterna y sueños interminables. Somos la generación
triunfo, encontrando el camino para ser diferente. de la vida. Dos en triple W
punto grupo fórmula punto com punto MX Escuchas, Grupo Fórmula, ¿Sabías qué? Los
rompecabezas desarrollan la capacidad de análisis, observación, atención,
concentración, y orientación espacial de los niños. Son muy entretenidos si se
arman en familia. Soy Gina Ibarra. Síganme en Twitter en arroba de mamá guión
bajo a mamá. Y seamos amigos en el escenario Puedes proactive. y y y y y y y y y
y y y y y y y y y y y y y y y y y y y y y y y y y y y y y y y y y y y y y y y y
y y y y y y y y y y y y y y y y y y y y y y y y y y y y y y y y y y y y y y y y
y y y y y y y y y y y y y y y y y y y y y y y y y y y y y y y y y y y y y y y y
y y y y y y y y y y y y y y y y y y y y y y y y y y y y y y y y y y y y y y y y
y y y y y y y y y y y y y y y y y y y y y y y y y y y y y y y y y y y y y y y y
y y y y y y y y y y y y y y y y y y y y y y y y y y y y y y y y y y y y y y y y
y y y y y y y y y y y y y y y y y y y y y y y y y y y y y y y y y y y y y y y y
y y y y y y y y y y y y y y y y y y y y y y y y y y y y y y y y y y y y y y y y
y y y y y y y y y y y y y y y y y y y y y y y y y y y y y y y y y y y y y y y y
y y y y y y y y y y y y y y y y y y y y y y y y y y y y y y y y y y y y y y y y
y y y y y y y y y y y y y y y y y y y y y y y y y y y y y y y y y y y y y y y y
y y y y y y y y y y y y y y y y y y y y y y y y y y y y y y y y y y y y y y y y
y y y y y y y y y y y y y y y y y y y y y y y y y y y y y y y y y y y y y y y y
y y y y y y y y y y y y y y y y y y y y y y y y y y y y y y y y y y y y y y y y
y y y y y y y y y y y y y y y y y y y y y y y y y y y y y y y y y y y y y y y y
y y y y y y y y y y y y y y y y y y y y y y y y y y y y y y y y y y y y y y y y
y y y y y y y y y y y y y y y y y y y y y y y y y y y y y y y y y y y y y y y y
y y y y y y y y y y y y y y y y y y y y y y y y y y y y y y y y y y y y y y y y
y y y y y y y y y y y y y y y y y y y y y y y y y y y y y y y y y y y y y y y y
y y y y y y y y y y y y y y y y y y y y y y y y y y y y y y y y y y y y y y y y
y y y y y y y y y y y y y y y y y y y y y y y y y y y y y y y y y y y y y y y y
y y y y y y y y y y y y y y y y y y y y y y y y y y y y y y y y y y y y y y y y
y y y y y y y y y y y y y y y y y y y y y y y y y y y y y y y y y y y y y y y y
y y y y y y y y y y y y y y y y y y y y y y y y y y y y y y y y y y y y y y y y
y y y y y y y y y y y y y y y y y y y y y y y y y y y y y y y y y y y y y y y y
y y y y y y y y y y y y y y y y y y y y y y y y y y y y y y y y y y y y y y y y
y y y y y y y y y y y y y y y y y y y y y y y y y y y y y y y y y y y y y y y y
y y y y y y y y y y y y y y y y y y y y y y y y y y y y y y y y y y y y y y y y
y y y y y y y y y y y y y y y y y y y y y y y y y y y y y y y y y y y y y y y y
y y y y y y y y y y y y y y y y y y y y y y y y y y y y y y y y y y y y y y y y
y y y y y y y y y y y y y y y y y y y y y y y y y y y y y y y y y y y y y y y y
y y y y y y y y y y y y y y y y y y y y y y y y y y y y y y y y y y y y y y y y
y y y y y y y y y y y y y y y y y y y y y y y y y y y y y y y y y y y y y y y y
y y y y y y y y y y y y y y y y y y y y y y y y y y y y y y y y y y y y y y y y
y y y y y y y y y y y y y y y y y y y y y y y y y y y y y y y y y y y y y y y y
y y y y y y y y y y y y y y y y y y y y y y y y y y y y y y y y y y y y y y y y
y y y y y y y y y y y y y y y y y y y y y y y y y y y y y y y y y y y y y y y y
y y y y y y y y y y y y y y y y y y y y y y y y y y y y y y y y y y y y y y y y
y y y y y y y y y y y y y y y y y y y y y y y y y y y y y y y y y y y y y y y y
y y y y y y y y y y y y y y y y y y y y y y y y y y y y y y y y y y y y y y y y
y y y y y y y y y y y y y y y y y y y y y y y y y y y y y y y y y y y y y y y y
y y y y y y y y y y y y y y y y y y y y y y y y y y y y y y y y y y y y y y y y
y y y y y y y y y y y y y y y y y y y y y y y y y y y y y y y y y y y y y y y y
y y y y y y y y y y y y y y y y y y y y y