TRANSCRIPTION: RADIO-FORMULA-91.3_AUDIO/2023-03-21-11H00M.AAC
--------------------------------------------------------------------------------
  swimming dead Tengo que entender que el toque de tu mano hace que mis amigos
reaccionen Que solo el trillado me abandona y que los opuestos me atreven Es
físico Solo lógico Tengo que entender que el toque de tu mano hace que mis
amigos reaccionen Que solo el trillado me abandona y que los opuestos me atreven
Es físico Solo lógico Solo lógico Tengo que entender que el toque de tu mano
hace que mis amigos reaccionen Que solo el trillado me abandona y que los
opuestos me atreven Que solo el trillado me abandona y que los opuestos me
atreven Hay una palabra que es Que lo que sea que quiera hacer para mí Que es
amor que tiene que hacerlo Que es amor por una emoción de segunda mano Que es
amor que tiene que hacerlo Pero tengo que decir He estado pensando en mi propia
protección Me asusta sentirme así ¿Qué es amor? Tiene que ver con esto ¿Qué es
amor? Pero una emoción de segunda mano ¿Qué es amor? Tiene que ver con esto
¿Quién necesita un corazón cuando no puede ser rojo? ¿Qué es amor? Tiene que ver
con esto ¿Qué es amor? Pero una emoción de segunda mano ¿Qué es amor? Tiene que
ver con esto ¿Quién necesita un corazón cuando no puede ser rojo? ¿Qué es amor?
Tiene que ver con esto ¿Qué es amor? Hagémoslo ¿Qué es amor? Tiene que ver con
esto ¿Qué es amor? Tiene que ver con esto ¿Qué es amor? y y y y y y y y y y y y
y y y y y y y y y y y y y y y y y y y y y y y y y y y y y y y y y y y y y y y y
y y y y y y y y y y y y y y y y y y y y y y y y y y y y y y y y y y y y y y y y
y y y y y y y y y y y y y y y y y y y y y y y y y y y y y y y y y y y y y y y y
y y y y y y y y y y y y y y y y y y y y y y y y y y y y y y y y y y y y y y y y
y y y y y y y y y y y y y y y y y y y y y y y y y y y y y y y y y y y y y y y y
y y y y y y y y y y y y y y y y y y y y y y y y y y y y y y y y y y y y y y y y
y y y y y y y y y y y y y y y y y y y y y y y y y y y y y y y y y y y y y y y y
y y y y y y y y y y y y y y y y y y y y y y y y y y y y y y y y y y y y y y y y
y y y y y y y y y y y y y y y y y y y y y y y y y y y y y y y y y y y y y y y y
y y y y y y y y y y y y y y y y y y y y y y y y y y y y y y y y y y y y y y y y
y y y y y y y y y y y y y y y y y y y y y y y y y y y y y y y y y y y y y y y y
y y y y y y y y y y y y y y y y y y y y y y y y y y y y y y y y y y y y y y y y
y y y y y y y y y y y y y y y y y y y y y y y y y y y y y y y y y y y y y y y y
y y y y y y y y y y y y y y y y y y y y y y y y y y y y y y y y y y y y y y y y
y y y y y y y y y y y y y y y y y y y y y y y y y y y y y y y y y y y y y y y y
y y y y y y y y y y y y y y y y y y y y y y y y y y y y y y y y y y y y y y y y
y y y y y y y y y y y y y y y y y y y y y y y y y y y y y y y y y y y y y y y y
y y y y y y y y y y y y y y y y y y y y y y y y y y y y y y y y y y y y y y y y
y y y y y y y y y y y y y y y y y y y y y y y y y y y y y y y y y y y y y y y y
y y y y y y y y y y y y y y y y y y y y y y y y y y y y y y y y y y y y y y y y
y y y y y y y y y y y y y y y y y y y y y y y y y y y y y y y y y y y y y y y y
y y y y y y y y y y y y y y y y y y y y y y y y y y y y y y y y y y y y y y y y
y y y y y y y y y y y y y y y y y y y y y y y y y y y y y y y y y y y y y y y y
y y y y y y y y y y y y y y y y y y y y y y y y y y y y y y y y y y y y y y y y
y y y y y y y y y y y y y y y y y y y y y y y y y y y y y y y y y y y y y y y y
y y y y y y y y y y y y y y y y y y y y y y y y y y y y y y y y y y y y y y y y
y y y y y y y y y y y y y y y y y y y y y y y y y y y y y y y y y y y y y y y y
y y y y y y y y y y y y y y y y y y y y y y y y y y y y y y y y y y y y y y y y
y y y y y y y y y y y y y y y y y y y y y y y y y y y y y y y y y y y y y y y y
y y y y y y y y y y y y y y y y y y y y y y y y y y y y y y y y y y y y y y y y
y y y y y y y y y y y y y y y y y y y y y y y y y y y y y y y y y y y y y y y y
y y y y y y y y y y y y y y y y y y y y y y y y y y y y y y y y y y y y y y y y
y y y y y y y y y y y y y y y y y y y y y y y y y y y y y y y y y y y y y y y y
y y y y y y y y y y y y y y y y y y y y y y y y y y y y y y y y y y y y y y y y
y y y y y y y y y y y y y y y y y y y y y y y y y y y y y y y y y y y y y y y y
y y y y y y y y y y y y y y y y y y y y y y y y y y y y y y y y y y y y y y y y
y y y y y y y y y y y y y y y y y y y y y y y y y y y y y y y y y y y y y y y y
y y y y y y y y y y y y y y y y y y y y y y y y y y y y y y y y y y y y y y y y
y y y y y y y y y y y y y y y y y y y y y y y y y y y y y y y y y y y y y y y y
y y y y y y y y y y y y y y y y y y y y y y y y y y y y y y y y y y y y y y y y
y y y y y y y y y y y y y y y y y y y y y y y y y y y y y y y y y y y y y y y y